{
  "title": "National Parks",
  "description": "This is a simple hero unit, a simple jumbotron-style component for calling extra attention to featured content or information.",
  "slides": [
    {
      "heading": "Park 2",
      "description": "#",
      "href": "#",
      "image": "images/park2.jpg"
    },
    {
      "heading": "Park 2",
      "description": "#",
      "href": "#",
      "image": "images/park2.jpg"
    },
    {
      "heading": "Park 3",
      "description": "#",
      "href": "#",
      "image": "images/park2.jpg"
    }
  ]
}
